[api-updater (non-obsolete-error-filter)] 9/14/2022 6:14:54 PM : Starting C:/Program Files/Unity/Hub/Editor/2020.3.26f1/Editor/Data/Tools/ScriptUpdater/APIUpdater.NonObsoleteApiUpdaterDetector.exe
[api-updater (non-obsolete-error-filter)] 
----------------------------------
jit/startup time      : 407.0943ms
moved types parse time: 44ms
candidates parse time : 8ms
C# parse time         : 196ms
candidates check time : 20ms
console write time    : 0ms

[api-updater (non-obsolete-error-filter)] 9/14/2022 6:15:39 PM : Starting C:/Program Files/Unity/Hub/Editor/2020.3.26f1/Editor/Data/Tools/ScriptUpdater/APIUpdater.NonObsoleteApiUpdaterDetector.exe
[api-updater (non-obsolete-error-filter)] 
----------------------------------
jit/startup time      : 85.9578ms
moved types parse time: 45ms
candidates parse time : 10ms
C# parse time         : 128ms
candidates check time : 22ms
console write time    : 0ms

[api-updater (non-obsolete-error-filter)] 9/14/2022 6:16:17 PM : Starting C:/Program Files/Unity/Hub/Editor/2020.3.26f1/Editor/Data/Tools/ScriptUpdater/APIUpdater.NonObsoleteApiUpdaterDetector.exe
[api-updater (non-obsolete-error-filter)] 
----------------------------------
jit/startup time      : 61.8023ms
moved types parse time: 46ms
candidates parse time : 8ms
C# parse time         : 128ms
candidates check time : 18ms
console write time    : 0ms

